[
    {
        "id": "3",
        "capsule": {
            "id": 1
        },
        "creator": {
            "id": "3",
            "name": "Theodore",
            "thumbnailUrl": "http://www.sfmoma.org/images/artwork/medium/97.987.JPG"
        },
        "name": "America",
        "creationTime": "2014-06-22T13:42:34.427Z",

        "thumbnailUrl": "http://www.washlaw.edu/Map/North%20America.JPG",

        "comments": [
            {
                "creator": {
                    "id": "2",
                    "name": "Robert",
                    "thumbnailUrl": "http://www.operaarts.com/images/opera-composers/wolfgang-amadeus-mozart.jpg"
                },
                "time": "2014-11-24T16:42:34.427Z",
                "text": "Comment 1"
            },
            {
                "creator": {
                    "id": "3",
                    "name": "Theodore",
                    "thumbnailUrl": "http://www.sfmoma.org/images/artwork/medium/97.987.JPG"
                },
                "time": "2014-11-25T18:12:35.427Z",
                "text": "Comment 2"
            }

        ]
    },
    {
	"id": "1",
        "capsule": {
            "id": 1
        },
        "creator": {
            "id": "1",
            "name": "John",
            "thumbnailUrl": "http://assets1.classicfm.com/2009/05/franz-joseph-haydn-1233575531-small-pod-1.jpg"
        },
        "name": "Europe",
        "creationTime": "2014-10-21T16:00:00.427Z",

        "thumbnailUrl": "http://www.internationalteflacademy.com/Portals/67369/images/map_czech_republic-tefl.jpg",

        "comments": [
            {
                "creator": {
                    "id": "1",
                    "name": "John",
		    "thumbnailUrl": "http://assets1.classicfm.com/2009/05/franz-joseph-haydn-1233575531-small-pod-1.jpg"
                },
                "time": "2014-10-22T08:32:00.427Z",
                "text": "Hello"
            },
            {
                "creator": {
                    "id": "2",
                    "name": "Robert",
                    "thumbnailUrl": "http://www.operaarts.com/images/opera-composers/wolfgang-amadeus-mozart.jpg"
                },
                "time": "2014-10-22T08:33:34.427Z",
                "text": "Hi"
            }

        ]
    },
    {
        "id": "2",
        "capsule": {
            "id": 1
        },

        "creator": {
            "id": "2",
            "name": "Robert",
            "thumbnailUrl": "http://www.operaarts.com/images/opera-composers/wolfgang-amadeus-mozart.jpg"
        },
        "name": "China",
        "creationTime": "2014-11-24T15:41:34.427Z",

        "thumbnailUrl": "http://www.operationworld.org/files/ow/maps/lgmap/chna-MMAP-md.png",

        "comments": [
            {
                "creator": {
                    "id": "2",
                    "name": "Robert",
                    "thumbnailUrl": "http://www.operaarts.com/images/opera-composers/wolfgang-amadeus-mozart.jpg"
                },
                "time": "2014-11-24T16:42:34.427Z",
                "text": "Comment 1"
            },
            {
                "creator": {
                    "id": "2",
                    "name": "Robert",
                    "thumbnailUrl": "http://www.operaarts.com/images/opera-composers/wolfgang-amadeus-mozart.jpg"
                },
                "time": "2014-11-25T18:12:35.427Z",
                "text": "Comment 2"
            }

        ]
    }
]